%YAML 1.1
%TAG !u! tag:unity3d.com,2011:
--- !u!1045 &1
EditorBuildSettings:
  m_ObjectHideFlags: 0
  serializedVersion: 2
  m_Scenes:
  - enabled: 1
    path: Assets/Block-Puzzle-Jewel/Scenes/MainScene.unity
    guid: f8690d4b175b40849bd42f542f0ebecd
  m_configObjects: {}
